<define-tag pagetitle>DSA-2360-1</define-tag>
<define-tag report_date>2011-12-06</define-tag>
<define-tag packages> </define-tag>
<define-tag isvulnerable>no</define-tag>
<define-tag fixed-section>no</define-tag>

#use wml::debian::security



</dl>
