<define-tag pagetitle>DSA-4806-1 minidlna</define-tag>
<define-tag report_date>2020-12-07</define-tag>
<define-tag secrefs>CVE-2020-12695 CVE-2020-28926 Bug#976594 Bug#976595</define-tag>
<define-tag packages>minidlna</define-tag>
<define-tag isvulnerable>yes</define-tag>
<define-tag fixed>yes</define-tag>
<define-tag fixed-section>no</define-tag>

#use wml::debian::security



</dl>
