<define-tag pagetitle>DLA-897-1 qbittorrent</define-tag>
<define-tag report_date>2017-4-16</define-tag>
<define-tag secrefs>CVE-2017-6503 CVE-2017-6504</define-tag>
<define-tag packages>qbittorrent</define-tag>
<define-tag isvulnerable>yes</define-tag>
<define-tag fixed>yes</define-tag>
<define-tag fixed-section>no</define-tag>

#use wml::debian::security

