<define-tag pagetitle>DLA-982-1 tor</define-tag>
<define-tag report_date>2017-6-10</define-tag>
<define-tag secrefs>CVE-2017-0376 Bug#864424</define-tag>
<define-tag packages>tor</define-tag>
<define-tag isvulnerable>yes</define-tag>
<define-tag fixed>yes</define-tag>
<define-tag fixed-section>no</define-tag>

#use wml::debian::security

