<define-tag pagetitle>DLA-2443-1 zeromq3</define-tag>
<define-tag report_date>2020-11-10</define-tag>
<define-tag secrefs>CVE-2020-15166</define-tag>
<define-tag packages>zeromq3</define-tag>
<define-tag isvulnerable>yes</define-tag>
<define-tag fixed>yes</define-tag>
<define-tag fixed-section>no</define-tag>

#use wml::debian::security

