<define-tag pagetitle>DLA-2141-1 yubikey-val</define-tag>
<define-tag report_date>2020-03-13</define-tag>
<define-tag secrefs>CVE-2020-10184 CVE-2020-10185</define-tag>
<define-tag packages>yubikey-val</define-tag>
<define-tag isvulnerable>yes</define-tag>
<define-tag fixed>yes</define-tag>
<define-tag fixed-section>no</define-tag>

#use wml::debian::security

