<define-tag pagetitle>DLA-1950-1 openjpeg2</define-tag>
<define-tag report_date>2019-10-08</define-tag>
<define-tag secrefs>CVE-2018-21010 Bug#939553</define-tag>
<define-tag packages>openjpeg2</define-tag>
<define-tag isvulnerable>yes</define-tag>
<define-tag fixed>yes</define-tag>
<define-tag fixed-section>no</define-tag>

#use wml::debian::security

