<define-tag pagetitle>DLA-706-1 python-django</define-tag>
<define-tag report_date>2016-11-14</define-tag>
<define-tag secrefs>CVE-2016-9014 Bug#842856</define-tag>
<define-tag packages>python-django</define-tag>
<define-tag isvulnerable>yes</define-tag>
<define-tag fixed>yes</define-tag>
<define-tag fixed-section>no</define-tag>

#use wml::debian::security

